[
    {
        "key": "ctrl+alt+g",
        "command": "workbench.action.toggleZenMode"
    },
    {
        "key": "ctrl+k z",
        "command": "-workbench.action.toggleZenMode"
    },    
    {
        "key": "ctrl+alt+v",
        "command": "toggleVim"
    },
    {
      "key": "shift+k",
      "command": "editor.action.showHover",
      "when": "editorTextFocus"
    },
    {
      "key": "tab",
      "command": "selectNextSuggestion",
      "when": "editorTextFocus && suggestWidgetMultipleSuggestions && suggestWidgetVisible"
    },
    {
      "key": "shift+tab",
      "command": "selectPrevSuggestion",
      "when": "editorTextFocus && suggestWidgetMultipleSuggestions && suggestWidgetVisible"
    },
]